# 	time			# bound. touch.	
      0.0000000000	      0.0000000000	      0.0000000000	      0.0000000000
      1.0000401000	      0.0000000000	      0.0000000000	      0.0000000000
      2.0000802000	      0.0000000000	      0.0000000000	      0.0000000000
      3.0001203000	      0.0000000000	      0.0000000000	      0.0000000000
      4.0001604000	      0.0000000000	      0.0000000000	      0.0000000000
      5.0002005000	      0.0000000000	      0.0000000000	      0.0000000000
      6.0002406000	      0.0000000000	      0.0000000000	      0.0000000000
      7.0002807000	      0.0000000000	      0.0000000000	      0.0000000000
      8.0003208000	      0.0000000000	      0.0000000000	      0.0000000000
      9.0003609000	      0.0000000000	      0.0000000000	      0.0000000000
     10.0004010000	      0.0000000000	      0.0000000000	      0.0000000000
     11.0004411000	      0.0000000000	      0.0000000000	      0.0000000000
     12.0004812000	      0.0000000000	      0.0000000000	      0.0000000000
     13.0005213000	      0.0000000000	      0.0000000000	      0.0000000000
     14.0005614000	      0.0000000000	      0.0000000000	      0.0000000000
     15.0006015000	      0.0000000000	      0.0000000000	      0.0000000000
     16.0006416000	      0.0000000000	      0.0000000000	      0.0000000000
     17.0006817000	      0.0000000000	      0.0000000000	      0.0000000000
     18.0007218000	      0.0000000000	      0.0000000000	      0.0000000000
     19.0007619000	      0.0000000000	      0.0000000000	      0.0000000000
     20.0008020000	      0.0000000000	      0.0000000000	      0.0000000000
     21.0008421000	      0.0000000000	      0.0000000000	      0.0000000000
     22.0008822000	      0.0000000000	      0.0000000000	      0.0000000000
     23.0009223000	      0.0000000000	      0.0000000000	      0.0000000000
     24.0009624000	      0.0000000000	      0.0000000000	      0.0000000000
     25.0010025000	      0.0000000000	      0.0000000000	      0.0000000000
     26.0010426000	      0.0000000000	      0.0000000000	      0.0000000000
     27.0010827000	      0.0000000000	      0.0000000000	      0.0000000000
     28.0011228000	      0.0000000000	      0.0000000000	      0.0000000000
     29.0011629000	      0.0000000000	      0.0000000000	      0.0000000000
     30.0012030000	      0.0000000000	      0.0000000000	      0.0000000000
     31.0012431000	      0.0000000000	      0.0000000000	      0.0000000000
     32.0012832000	      0.0000000000	      0.0000000000	      0.0000000000
     33.0013233000	      0.0000000000	      0.0000000000	      0.0000000000
     34.0013634000	      0.0000000000	      0.0000000000	      0.0000000000
     35.0014035000	      0.0000000000	      0.0000000000	      0.0000000000
     36.0014436000	      0.0000000000	      0.0000000000	      0.0000000000
     37.0014837000	      0.0000000000	      0.0000000000	      0.0000000000
     38.0015238000	      0.0000000000	      0.0000000000	      0.0000000000
     39.0015639000	      0.0000000000	      0.0000000000	      0.0000000000
     40.0016040000	      0.0000000000	      0.0000000000	      0.0000000000
     41.0016441000	      0.0000000000	      0.0000000000	      0.0000000000
     42.0016842000	      0.0000000000	      0.0000000000	      0.0000000000
     43.0017243000	      0.0000000000	      0.0000000000	      0.0000000000
     44.0017644000	      0.0000000000	      0.0000000000	      0.0000000000
     45.0018045000	      0.0000000000	      0.0000000000	      0.0000000000
     46.0018446000	      0.0000000000	      0.0000000000	      0.0000000000
     47.0018847000	      0.0000000000	      0.0000000000	      0.0000000000
     48.0019248000	      0.0000000000	      0.0000000000	      0.0000000000
     49.0019649000	      0.0000000000	      0.0000000000	      0.0000000000
     50.0020050000	      0.0000000000	      0.0000000000	      0.0000000000
     51.0020451000	      0.0000000000	      0.0000000000	      0.0000000000
     52.0020852000	      0.0000000000	      0.0000000000	      0.0000000000
     53.0021253000	      0.0000000000	      0.0000000000	      0.0000000000
     54.0021654000	      0.0000000000	      0.0000000000	      0.0000000000
     55.0022055000	      0.0000000000	      0.0000000000	      0.0000000000
     56.0022456000	      0.0000000000	      0.0000000000	      0.0000000000
     57.0022857000	      0.0000000000	      0.0000000000	      0.0000000000
     58.0023258000	      0.0000000000	      0.0000000000	      0.0000000000
     59.0023659000	      0.0000000000	      0.0000000000	      0.0000000000
     60.0024060000	      0.0000000000	      0.0000000000	      0.0000000000
     61.0024461000	      0.0000000000	      0.0000000000	      0.0000000000
     62.0024862000	      0.0000000000	      0.0000000000	      0.0000000000
     63.0025263000	      0.0000000000	      0.0000000000	      0.0000000000
     64.0025664000	      0.0000000000	      0.0000000000	      0.0000000000
     65.0026065000	      0.0000000000	      0.0000000000	      0.0000000000
     66.0026466000	      0.0000000000	      0.0000000000	      0.0000000000
     67.0026867000	      0.0000000000	      0.0000000000	      0.0000000000
     68.0027268000	      0.0000000000	      0.0000000000	      0.0000000000
     69.0027669000	      0.0000000000	      0.0000000000	      0.0000000000
     70.0028070000	      0.0000000000	      0.0000000000	      0.0000000000
     71.0028471000	      0.0000000000	      0.0000000000	      0.0000000000
     72.0028872000	      0.0000000000	      0.0000000000	      0.0000000000
     73.0029273000	      0.0000000000	      0.0000000000	      0.0000000000
     74.0029674000	      0.0000000000	      0.0000000000	      0.0000000000
     75.0030075000	      0.0000000000	      0.0000000000	      0.0000000000
     76.0030476000	      0.0000000000	      0.0000000000	      0.0000000000
     77.0030877000	      0.0000000000	      0.0000000000	      0.0000000000
     78.0031278000	      0.0000000000	      0.0000000000	      0.0000000000
     79.0031679000	      0.0000000000	      0.0000000000	      0.0000000000
     80.0032080000	      0.0000000000	      0.0000000000	      0.0000000000
     81.0032481000	      0.0000000000	      0.0000000000	      0.0000000000
     82.0032882000	      0.0000000000	      0.0000000000	      0.0000000000
     83.0033283000	      0.0000000000	      0.0000000000	      0.0000000000
     84.0033684000	      0.0000000000	      0.0000000000	      0.0000000000
     85.0034085000	      0.0000000000	      0.0000000000	      0.0000000000
     86.0034486000	      0.0000000000	      0.0000000000	      0.0000000000
     87.0034887000	      0.0000000000	      0.0000000000	      0.0000000000
     88.0035288000	      0.0000000000	      0.0000000000	      0.0000000000
     89.0035689000	      0.0000000000	      0.0000000000	      0.0000000000
     90.0036090000	      0.0000000000	      0.0000000000	      0.0000000000
     91.0036491000	      0.0000000000	      0.0000000000	      0.0000000000
     92.0036892000	      0.0000000000	      0.0000000000	      0.0000000000
     93.0037293000	      0.0000000000	      0.0000000000	      0.0000000000
     94.0037694000	      0.0000000000	      0.0000000000	      0.0000000000
     95.0038095000	      0.0000000000	      0.0000000000	      0.0000000000
     96.0038496000	      0.0000000000	      0.0000000000	      0.0000000000
     97.0038897000	      0.0000000000	      0.0000000000	      0.0000000000
     98.0039298000	      0.0000000000	      0.0000000000	      0.0000000000
     99.0039699000	      0.0000000000	      0.0000000000	      0.0000000000
    100.0040100000	      0.0000000000	      0.0000000000	      0.0000000000
    101.0040501000	      0.0000000000	      0.0000000000	      0.0000000000
    102.0040902000	      0.0000000000	      0.0000000000	      0.0000000000
    103.0041303000	      0.0000000000	      0.0000000000	      0.0000000000
    104.0041704000	      0.0000000000	      0.0000000000	      0.0000000000
    105.0042105000	      0.0000000000	      0.0000000000	      0.0000000000
    106.0042506000	      0.0000000000	      0.0000000000	      0.0000000000
    107.0042907000	      0.0000000000	      0.0000000000	      0.0000000000
    108.0043308000	      0.0000000000	      0.0000000000	      0.0000000000
    109.0043709000	      0.0000000000	      0.0000000000	      0.0000000000
    110.0044110000	      0.0000000000	      0.0000000000	      0.0000000000
    111.0044511000	      0.0000000000	      0.0000000000	      0.0000000000
    112.0044912000	      0.0000000000	      0.0000000000	      0.0000000000
    113.0045313000	      0.0000000000	      0.0000000000	      0.0000000000
    114.0045714000	      0.0000000000	      0.0000000000	      0.0000000000
    115.0046115000	      0.0000000000	      0.0000000000	      0.0000000000
    116.0046516000	      0.0000000000	      0.0000000000	      0.0000000000
    117.0046917000	      0.0000000000	      0.0000000000	      0.0000000000
    118.0047318000	      0.0000000000	      0.0000000000	      0.0000000000
    119.0047719000	      0.0000000000	      0.0000000000	      0.0000000000
    120.0048120000	      0.0000000000	      0.0000000000	      0.0000000000
    121.0048521000	      0.0000000000	      0.0000000000	      0.0000000000
    122.0048922000	      0.0000000000	      0.0000000000	      0.0000000000
    123.0049323000	      0.0000000000	      0.0000000000	      0.0000000000
    124.0049724000	      0.0000000000	      0.0000000000	      0.0000000000
    125.0050125000	      0.0000000000	      0.0000000000	      0.0000000000
    126.0050526000	      0.0000000000	      0.0000000000	      0.0000000000
    127.0050927000	      0.0000000000	      0.0000000000	      0.0000000000
    128.0051328000	      0.0000000000	      0.0000000000	      0.0000000000
    129.0051729000	      0.0000000000	      0.0000000000	      0.0000000000
    130.0052130000	      0.0000000000	      0.0000000000	      0.0000000000
    131.0052531000	      0.0000000000	      0.0000000000	      0.0000000000
    132.0052932000	      0.0000000000	      0.0000000000	      0.0000000000
    133.0053333000	      0.0000000000	      0.0000000000	      0.0000000000
    134.0053734000	      0.0000000000	      0.0000000000	      0.0000000000
    135.0054135000	      0.0000000000	      0.0000000000	      0.0000000000
    136.0054536000	      0.0000000000	      0.0000000000	      0.0000000000
    137.0054937000	      0.0000000000	      0.0000000000	      0.0000000000
    138.0055338000	      0.0000000000	      0.0000000000	      0.0000000000
    139.0055739000	      0.0000000000	      0.0000000000	      0.0000000000
    140.0056140000	      0.0000000000	      0.0000000000	      0.0000000000
    141.0056541000	      0.0000000000	      0.0000000000	      0.0000000000
    142.0056942000	      0.0000000000	      0.0000000000	      0.0000000000
    143.0057343000	      0.0000000000	      0.0000000000	      0.0000000000
    144.0057744000	      0.0000000000	      0.0000000000	      0.0000000000
    145.0058145000	      0.0000000000	      0.0000000000	      0.0000000000
    146.0058546000	      0.0000000000	      0.0000000000	      0.0000000000
    147.0058947000	      0.0000000000	      0.0000000000	      0.0000000000
    148.0059348000	      0.0000000000	      0.0000000000	      0.0000000000
    149.0059749000	      0.0000000000	      0.0000000000	      0.0000000000
    150.0060150000	      0.0000000000	      0.0000000000	      0.0000000000
    151.0060551000	      0.0000000000	      0.0000000000	      0.0000000000
    152.0060952000	      0.0000000000	      0.0000000000	      0.0000000000
    153.0061353000	      0.0000000000	      0.0000000000	      0.0000000000
    154.0061754000	      0.0000000000	      0.0000000000	      0.0000000000
    155.0062155000	      0.0000000000	      0.0000000000	      0.0000000000
    156.0062556000	      0.0000000000	      0.0000000000	      0.0000000000
    157.0062957000	      0.0000000000	      0.0000000000	      0.0000000000
    158.0063358000	      0.0000000000	      0.0000000000	      0.0000000000
    159.0063759000	      0.0000000000	      0.0000000000	      0.0000000000
    160.0064160000	      0.0000000000	      0.0000000000	      0.0000000000
    161.0064561000	      0.0000000000	      0.0000000000	      0.0000000000
    162.0064962000	      0.0000000000	      0.0000000000	      0.0000000000
    163.0065363000	      0.0000000000	      0.0000000000	      0.0000000000
    164.0065764000	      0.0000000000	      0.0000000000	      0.0000000000
    165.0066165000	      0.0000000000	      0.0000000000	      0.0000000000
    166.0066566000	      0.0000000000	      0.0000000000	      0.0000000000
    167.0066967000	      0.0000000000	      0.0000000000	      0.0000000000
    168.0067368000	      0.0000000000	      0.0000000000	      0.0000000000
    169.0067769000	      0.0000000000	      0.0000000000	      0.0000000000
    170.0068170000	      0.0000000000	      0.0000000000	      0.0000000000
    171.0068571000	      0.0000000000	      0.0000000000	      0.0000000000
    172.0068972000	      0.0000000000	      0.0000000000	      0.0000000000
    173.0069373000	      0.0000000000	      0.0000000000	      0.0000000000
    174.0069774000	      0.0000000000	      0.0000000000	      0.0000000000
    175.0070175000	      0.0000000000	      0.0000000000	      0.0000000000
    176.0070576000	      0.0000000000	      0.0000000000	      0.0000000000
    177.0070977000	      0.0000000000	      0.0000000000	      0.0000000000
    178.0071378000	      0.0000000000	      0.0000000000	      0.0000000000
    179.0071779000	      0.0000000000	      0.0000000000	      0.0000000000
    180.0072180000	      0.0000000000	      0.0000000000	      0.0000000000
    181.0072581000	      0.0000000000	      0.0000000000	      0.0000000000
    182.0072982000	      0.0000000000	      0.0000000000	      0.0000000000
    183.0073383000	      0.0000000000	      0.0000000000	      0.0000000000
    184.0073784000	      0.0000000000	      0.0000000000	      0.0000000000
    185.0074185000	      0.0000000000	      0.0000000000	      0.0000000000
    186.0074586000	      0.0000000000	      0.0000000000	      0.0000000000
    187.0074987000	      0.0000000000	      0.0000000000	      0.0000000000
    188.0075388000	      0.0000000000	      0.0000000000	      0.0000000000
    189.0075789000	      0.0000000000	      0.0000000000	      0.0000000000
    190.0076190000	      0.0000000000	      0.0000000000	      0.0000000000
    191.0076591000	      0.0000000000	      0.0000000000	      0.0000000000
    192.0076992000	      0.0000000000	      0.0000000000	      0.0000000000
    193.0077393000	      0.0000000000	      0.0000000000	      0.0000000000
    194.0077794000	      0.0000000000	      0.0000000000	      0.0000000000
    195.0078195000	      0.0000000000	      0.0000000000	      0.0000000000
    196.0078596000	      0.0000000000	      0.0000000000	      0.0000000000
    197.0078997000	      0.0000000000	      0.0000000000	      0.0000000000
    198.0079398000	      0.0000000000	      0.0000000000	      0.0000000000
    199.0079799000	      0.0000000000	      0.0000000000	      0.0000000000
    200.0080200000	      0.0000000000	      0.0000000000	      0.0000000000
    201.0080601000	      0.0000000000	      0.0000000000	      0.0000000000
    202.0081002000	      0.0000000000	      0.0000000000	      0.0000000000
    203.0081403000	      0.0000000000	      0.0000000000	      0.0000000000
    204.0081804000	      0.0000000000	      0.0000000000	      0.0000000000
    205.0082205000	      0.0000000000	      0.0000000000	      0.0000000000
    206.0082606000	      0.0000000000	      0.0000000000	      0.0000000000
    207.0083007000	      0.0000000000	      0.0000000000	      0.0000000000
    208.0083408000	      0.0000000000	      0.0000000000	      0.0000000000
    209.0083809000	      0.0000000000	      0.0000000000	      0.0000000000
    210.0084210000	      0.0000000000	      0.0000000000	      0.0000000000
    211.0084611000	      0.0000000000	      0.0000000000	      0.0000000000
    212.0085012000	      0.0000000000	      0.0000000000	      0.0000000000
    213.0085413000	      0.0000000000	      0.0000000000	      0.0000000000
    214.0085814000	      0.0000000000	      0.0000000000	      0.0000000000
    215.0086215000	      0.0000000000	      0.0000000000	      0.0000000000
    216.0086616000	      0.0000000000	      0.0000000000	      0.0000000000
    217.0087017000	      0.0000000000	      0.0000000000	      0.0000000000
    218.0087418000	      0.0000000000	      0.0000000000	      0.0000000000
    219.0087819000	      0.0000000000	      0.0000000000	      0.0000000000
    220.0088220000	      0.0000000000	      0.0000000000	      0.0000000000
    221.0088621000	      0.0000000000	      0.0000000000	      0.0000000000
    222.0089022000	      0.0000000000	      0.0000000000	      0.0000000000
    223.0089423000	      0.0000000000	      0.0000000000	      0.0000000000
    224.0089824000	      0.0000000000	      0.0000000000	      0.0000000000
    225.0090225000	      0.0000000000	      0.0000000000	      0.0000000000
    226.0090626000	      0.0000000000	      0.0000000000	      0.0000000000
    227.0091027000	      0.0000000000	      0.0000000000	      0.0000000000
    228.0091428000	      0.0000000000	      0.0000000000	      0.0000000000
    229.0091829000	      0.0000000000	      0.0000000000	      0.0000000000
    230.0092230000	      0.0000000000	      0.0000000000	      0.0000000000
    231.0092631000	      0.0000000000	      0.0000000000	      0.0000000000
    232.0093032000	      0.0000000000	      0.0000000000	      0.0000000000
    233.0093433000	      0.0000000000	      0.0000000000	      0.0000000000
    234.0093834000	      0.0000000000	      0.0000000000	      0.0000000000
    235.0094235000	      0.0000000000	      0.0000000000	      0.0000000000
    236.0094636000	      0.0000000000	      0.0000000000	      0.0000000000
    237.0095037000	      0.0000000000	      0.0000000000	      0.0000000000
    238.0095438000	      0.0000000000	      0.0000000000	      0.0000000000
    239.0095839000	      0.0000000000	      0.0000000000	      0.0000000000
    240.0096240000	      0.0000000000	      0.0000000000	      0.0000000000
    241.0096641000	      0.0000000000	      0.0000000000	      0.0000000000
    242.0097042000	      0.0000000000	      0.0000000000	      0.0000000000
    243.0097443000	      0.0000000000	      0.0000000000	      0.0000000000
    244.0097844000	      0.0000000000	      0.0000000000	      0.0000000000
    245.0098245000	      0.0000000000	      0.0000000000	      0.0000000000
    246.0098646000	      0.0000000000	      0.0000000000	      0.0000000000
    247.0099047000	      0.0000000000	      0.0000000000	      0.0000000000
    248.0099448000	      0.0000000000	      0.0000000000	      0.0000000000
    249.0099849000	      0.0000000000	      0.0000000000	      0.0000000000
    250.0100250000	      0.0000000000	      0.0000000000	      0.0000000000
    251.0100651000	      0.0000000000	      0.0000000000	      0.0000000000
    252.0101052000	      0.0000000000	      0.0000000000	      0.0000000000
    253.0101453000	      0.0000000000	      0.0000000000	      0.0000000000
    254.0101854000	      0.0000000000	      0.0000000000	      0.0000000000
    255.0102255000	      0.0000000000	      0.0000000000	      0.0000000000
    256.0102656000	      0.0000000000	      0.0000000000	      0.0000000000
    257.0103057000	      0.0000000000	      0.0000000000	      0.0000000000
    258.0103458000	      0.0000000000	      0.0000000000	      0.0000000000
    259.0103859000	      0.0000000000	      0.0000000000	      0.0000000000
    260.0104260000	      0.0000000000	      0.0000000000	      0.0000000000
    261.0104661000	      0.0000000000	      0.0000000000	      0.0000000000
    262.0105062000	      0.0000000000	      0.0000000000	      0.0000000000
    263.0105463000	      0.0000000000	      0.0000000000	      0.0000000000
    264.0105864000	      0.0000000000	      0.0000000000	      0.0000000000
    265.0106265000	      0.0000000000	      0.0000000000	      0.0000000000
    266.0106666000	      0.0000000000	      0.0000000000	      0.0000000000
    267.0107067000	      0.0000000000	      0.0000000000	      0.0000000000
    268.0107468000	      0.0000000000	      0.0000000000	      0.0000000000
    269.0107869000	      0.0000000000	      0.0000000000	      0.0000000000
    270.0108270000	      0.0000000000	      0.0000000000	      0.0000000000
    271.0108671000	      0.0000000000	      0.0000000000	      0.0000000000
    272.0109072000	      0.0000000000	      0.0000000000	      0.0000000000
    273.0109473000	      0.0000000000	      0.0000000000	      0.0000000000
    274.0109874000	      0.0000000000	      0.0000000000	      0.0000000000
    275.0110275000	      0.0000000000	      0.0000000000	      0.0000000000
    276.0110676000	      0.0000000000	      0.0000000000	      0.0000000000
    277.0111077000	      0.0000000000	      0.0000000000	      0.0000000000
    278.0111478000	      8.0000000000	      0.0000000000	      4.0000000000
    279.0111879000	     26.0000000000	      0.0000000000	     13.0000000000
    280.0112280000	     16.0000000000	      0.0000000000	      8.0000000000
    281.0112681000	      6.0000000000	      0.0000000000	      3.0000000000
    282.0113082000	     19.0000000000	      1.0000000000	      9.0000000000
    283.0113483000	     22.0000000000	      2.0000000000	     10.0000000000
    284.0113884000	     34.0000000000	      2.0000000000	     16.0000000000
    285.0114285000	     26.0000000000	      0.0000000000	     13.0000000000
    286.0114686000	     41.0000000000	     11.0000000000	     15.0000000000
    287.0115087000	     50.0000000000	     16.0000000000	     17.0000000000
    288.0115488000	     49.0000000000	     23.0000000000	     13.0000000000
    289.0115889000	     50.0000000000	     26.0000000000	     12.0000000000
    290.0116290000	     56.0000000000	     24.0000000000	     16.0000000000
    291.0116691000	     51.0000000000	     15.0000000000	     18.0000000000
    292.0117092000	     52.0000000000	     16.0000000000	     18.0000000000
    293.0117493000	     66.0000000000	     18.0000000000	     24.0000000000
    294.0117894000	     71.0000000000	     19.0000000000	     26.0000000000
    295.0118295000	     61.0000000000	     27.0000000000	     17.0000000000
    296.0118696000	     65.0000000000	     27.0000000000	     19.0000000000
    297.0119097000	     66.0000000000	     18.0000000000	     24.0000000000
    298.0119498000	     67.0000000000	     19.0000000000	     24.0000000000
    299.0119899000	     62.0000000000	     24.0000000000	     19.0000000000
    300.0120300000	     70.0000000000	     24.0000000000	     23.0000000000
    301.0120701000	     71.0000000000	     25.0000000000	     23.0000000000
    302.0121102000	     66.0000000000	     22.0000000000	     22.0000000000
    303.0121503000	     69.0000000000	     25.0000000000	     22.0000000000
    304.0121904000	     69.0000000000	     23.0000000000	     23.0000000000
    305.0122305000	     68.0000000000	     22.0000000000	     23.0000000000
    306.0122706000	     70.0000000000	     22.0000000000	     24.0000000000
    307.0123107000	     74.0000000000	     22.0000000000	     26.0000000000
    308.0123508000	     63.0000000000	     23.0000000000	     20.0000000000
    309.0123909000	     61.0000000000	     23.0000000000	     19.0000000000
    310.0124310000	     57.0000000000	     15.0000000000	     21.0000000000
    311.0124711000	     60.0000000000	     18.0000000000	     21.0000000000
    312.0125112000	     60.0000000000	     14.0000000000	     23.0000000000
    313.0125513000	     53.0000000000	     15.0000000000	     19.0000000000
    314.0125914000	     46.0000000000	     12.0000000000	     17.0000000000
    315.0126315000	     54.0000000000	     10.0000000000	     22.0000000000
    316.0126716000	     54.0000000000	     14.0000000000	     20.0000000000
    317.0127117000	     60.0000000000	     12.0000000000	     24.0000000000
    318.0127518000	     56.0000000000	     16.0000000000	     20.0000000000
    319.0127919000	     57.0000000000	     13.0000000000	     22.0000000000
    320.0128320000	     60.0000000000	     10.0000000000	     25.0000000000
    321.0128721000	     59.0000000000	     13.0000000000	     23.0000000000
    322.0129122000	     56.0000000000	     12.0000000000	     22.0000000000
    323.0129523000	     61.0000000000	     15.0000000000	     23.0000000000
    324.0129924000	     48.0000000000	     12.0000000000	     18.0000000000
    325.0130325000	     44.0000000000	     16.0000000000	     14.0000000000
    326.0130726000	     33.0000000000	     19.0000000000	      7.0000000000
    327.0131127000	     36.0000000000	     16.0000000000	     10.0000000000
    328.0131528000	     37.0000000000	     19.0000000000	      9.0000000000
    329.0131929000	     40.0000000000	     16.0000000000	     12.0000000000
    330.0132330000	     38.0000000000	     18.0000000000	     10.0000000000
    331.0132731000	     37.0000000000	     17.0000000000	     10.0000000000
    332.0133132000	     33.0000000000	     15.0000000000	      9.0000000000
    333.0133533000	     31.0000000000	     17.0000000000	      7.0000000000
    334.0133934000	     35.0000000000	     15.0000000000	     10.0000000000
    335.0134335000	     33.0000000000	     21.0000000000	      6.0000000000
    336.0134736000	     45.0000000000	     19.0000000000	     13.0000000000
    337.0135137000	     38.0000000000	     22.0000000000	      8.0000000000
    338.0135538000	     36.0000000000	     22.0000000000	      7.0000000000
    339.0135939000	     36.0000000000	     20.0000000000	      8.0000000000
    340.0136340000	     38.0000000000	     20.0000000000	      9.0000000000
    341.0136741000	     39.0000000000	     21.0000000000	      9.0000000000
    342.0137142000	     33.0000000000	     21.0000000000	      6.0000000000
    343.0137543000	     31.0000000000	     19.0000000000	      6.0000000000
    344.0137944000	     29.0000000000	     21.0000000000	      4.0000000000
    345.0138345000	     30.0000000000	     20.0000000000	      5.0000000000
    346.0138746000	     28.0000000000	     20.0000000000	      4.0000000000
    347.0139147000	     25.0000000000	     19.0000000000	      3.0000000000
    348.0139548000	     26.0000000000	     18.0000000000	      4.0000000000
    349.0139949000	     29.0000000000	     17.0000000000	      6.0000000000
    350.0140350000	     27.0000000000	     19.0000000000	      4.0000000000
    351.0140751000	     27.0000000000	     17.0000000000	      5.0000000000
    352.0141152000	     28.0000000000	     20.0000000000	      4.0000000000
    353.0141553000	     30.0000000000	     20.0000000000	      5.0000000000
    354.0141954000	     34.0000000000	     20.0000000000	      7.0000000000
    355.0142355000	     31.0000000000	     17.0000000000	      7.0000000000
    356.0142756000	     28.0000000000	     14.0000000000	      7.0000000000
    357.0143157000	     30.0000000000	     20.0000000000	      5.0000000000
    358.0143558000	     28.0000000000	     20.0000000000	      4.0000000000
    359.0143959000	     28.0000000000	     14.0000000000	      7.0000000000
    360.0144360000	     25.0000000000	     15.0000000000	      5.0000000000
    361.0144761000	     26.0000000000	     16.0000000000	      5.0000000000
    362.0145162000	     27.0000000000	     15.0000000000	      6.0000000000
    363.0145563000	     32.0000000000	     16.0000000000	      8.0000000000
    364.0145964000	     21.0000000000	     15.0000000000	      3.0000000000
    365.0146365000	     22.0000000000	     14.0000000000	      4.0000000000
    366.0146766000	     21.0000000000	     15.0000000000	      3.0000000000
    367.0147167000	     23.0000000000	     15.0000000000	      4.0000000000
    368.0147568000	     24.0000000000	     14.0000000000	      5.0000000000
    369.0147969000	     19.0000000000	     11.0000000000	      4.0000000000
    370.0148370000	     20.0000000000	     12.0000000000	      4.0000000000
    371.0148771000	     20.0000000000	     14.0000000000	      3.0000000000
    372.0149172000	     22.0000000000	     12.0000000000	      5.0000000000
    373.0149573000	     22.0000000000	     12.0000000000	      5.0000000000
    374.0149974000	     21.0000000000	     11.0000000000	      5.0000000000
    375.0150375000	     26.0000000000	     16.0000000000	      5.0000000000
    376.0150776000	     25.0000000000	     17.0000000000	      4.0000000000
    377.0151177000	     29.0000000000	     17.0000000000	      6.0000000000
    378.0151578000	     23.0000000000	     13.0000000000	      5.0000000000
    379.0151979000	     24.0000000000	     12.0000000000	      6.0000000000
    380.0152380000	     24.0000000000	     14.0000000000	      5.0000000000
    381.0152781000	     22.0000000000	     14.0000000000	      4.0000000000
    382.0153182000	     23.0000000000	     13.0000000000	      5.0000000000
    383.0153583000	     26.0000000000	     14.0000000000	      6.0000000000
    384.0153984000	     23.0000000000	     11.0000000000	      6.0000000000
    385.0154385000	     22.0000000000	     10.0000000000	      6.0000000000
    386.0154786000	     24.0000000000	     10.0000000000	      7.0000000000
    387.0155187000	     24.0000000000	     10.0000000000	      7.0000000000
    388.0155588000	     19.0000000000	      7.0000000000	      6.0000000000
    389.0155989000	     20.0000000000	      8.0000000000	      6.0000000000
    390.0156390000	     19.0000000000	      7.0000000000	      6.0000000000
    391.0156791000	     21.0000000000	     11.0000000000	      5.0000000000
    392.0157192000	     22.0000000000	     10.0000000000	      6.0000000000
    393.0157593000	     23.0000000000	     11.0000000000	      6.0000000000
    394.0157994000	     24.0000000000	     10.0000000000	      7.0000000000
    395.0158395000	     26.0000000000	     10.0000000000	      8.0000000000
    396.0158796000	     20.0000000000	     10.0000000000	      5.0000000000
    397.0159197000	     21.0000000000	     11.0000000000	      5.0000000000
    398.0159598000	     21.0000000000	     11.0000000000	      5.0000000000
    399.0159999000	     22.0000000000	      8.0000000000	      7.0000000000
    400.0160400000	     20.0000000000	      8.0000000000	      6.0000000000
    401.0160801000	     19.0000000000	      7.0000000000	      6.0000000000
    402.0161202000	     21.0000000000	      7.0000000000	      7.0000000000
    403.0161603000	     20.0000000000	      8.0000000000	      6.0000000000
    404.0162004000	     21.0000000000	      9.0000000000	      6.0000000000
    405.0162405000	     19.0000000000	      9.0000000000	      5.0000000000
    406.0162806000	     19.0000000000	      9.0000000000	      5.0000000000
    407.0163207000	     21.0000000000	     11.0000000000	      5.0000000000
    408.0163608000	     20.0000000000	      8.0000000000	      6.0000000000
    409.0164009000	     26.0000000000	     10.0000000000	      8.0000000000
    410.0164410000	     20.0000000000	     12.0000000000	      4.0000000000
    411.0164811000	     19.0000000000	     11.0000000000	      4.0000000000
    412.0165212000	     20.0000000000	     12.0000000000	      4.0000000000
    413.0165613000	     21.0000000000	     13.0000000000	      4.0000000000
    414.0166014000	     23.0000000000	     13.0000000000	      5.0000000000
    415.0166415000	     23.0000000000	     15.0000000000	      4.0000000000
    416.0166816000	     22.0000000000	     10.0000000000	      6.0000000000
    417.0167217000	     24.0000000000	     10.0000000000	      7.0000000000
    418.0167618000	     22.0000000000	      8.0000000000	      7.0000000000
    419.0168019000	     24.0000000000	     10.0000000000	      7.0000000000
    420.0168420000	     23.0000000000	     11.0000000000	      6.0000000000
    421.0168821000	     21.0000000000	     11.0000000000	      5.0000000000
    422.0169222000	     21.0000000000	     11.0000000000	      5.0000000000
    423.0169623000	     23.0000000000	      9.0000000000	      7.0000000000
    424.0170024000	     20.0000000000	     10.0000000000	      5.0000000000
    425.0170425000	     19.0000000000	     11.0000000000	      4.0000000000
    426.0170826000	     19.0000000000	     11.0000000000	      4.0000000000
    427.0171227000	     18.0000000000	     10.0000000000	      4.0000000000
    428.0171628000	     18.0000000000	     12.0000000000	      3.0000000000
    429.0172029000	     16.0000000000	     10.0000000000	      3.0000000000
    430.0172430000	     17.0000000000	      9.0000000000	      4.0000000000
    431.0172831000	     18.0000000000	     10.0000000000	      4.0000000000
    432.0173232000	     15.0000000000	      9.0000000000	      3.0000000000
    433.0173633000	     14.0000000000	      6.0000000000	      4.0000000000
    434.0174034000	     14.0000000000	      6.0000000000	      4.0000000000
    435.0174435000	     15.0000000000	      7.0000000000	      4.0000000000
    436.0174836000	     19.0000000000	      7.0000000000	      6.0000000000
    437.0175237000	     17.0000000000	      7.0000000000	      5.0000000000
    438.0175638000	     17.0000000000	      5.0000000000	      6.0000000000
    439.0176039000	     16.0000000000	      6.0000000000	      5.0000000000
    440.0176440000	     17.0000000000	      7.0000000000	      5.0000000000
    441.0176841000	     16.0000000000	      8.0000000000	      4.0000000000
    442.0177242000	     16.0000000000	      6.0000000000	      5.0000000000
    443.0177643000	     16.0000000000	      6.0000000000	      5.0000000000
    444.0178044000	     18.0000000000	      6.0000000000	      6.0000000000
    445.0178445000	     16.0000000000	      6.0000000000	      5.0000000000
    446.0178846000	     15.0000000000	      5.0000000000	      5.0000000000
    447.0179247000	     15.0000000000	      5.0000000000	      5.0000000000
    448.0179648000	     22.0000000000	      6.0000000000	      8.0000000000
    449.0180049000	     20.0000000000	      8.0000000000	      6.0000000000
    450.0180450000	     20.0000000000	      8.0000000000	      6.0000000000
    451.0180851000	     21.0000000000	      7.0000000000	      7.0000000000
    452.0181252000	     20.0000000000	      6.0000000000	      7.0000000000
    453.0181653000	     20.0000000000	      6.0000000000	      7.0000000000
    454.0182054000	     16.0000000000	      6.0000000000	      5.0000000000
    455.0182455000	     18.0000000000	      6.0000000000	      6.0000000000
    456.0182856000	     14.0000000000	      6.0000000000	      4.0000000000
    457.0183257000	     15.0000000000	      7.0000000000	      4.0000000000
    458.0183658000	     16.0000000000	      4.0000000000	      6.0000000000
    459.0184059000	     17.0000000000	      3.0000000000	      7.0000000000
    460.0184460000	     18.0000000000	      4.0000000000	      7.0000000000
    461.0184861000	     18.0000000000	      4.0000000000	      7.0000000000
    462.0185262000	     18.0000000000	      4.0000000000	      7.0000000000
    463.0185663000	     16.0000000000	      6.0000000000	      5.0000000000
    464.0186064000	     15.0000000000	      7.0000000000	      4.0000000000
    465.0186465000	     14.0000000000	      4.0000000000	      5.0000000000
    466.0186866000	     14.0000000000	      4.0000000000	      5.0000000000
    467.0187267000	     13.0000000000	      3.0000000000	      5.0000000000
    468.0187668000	     12.0000000000	      6.0000000000	      3.0000000000
    469.0188069000	     14.0000000000	      6.0000000000	      4.0000000000
    470.0188470000	     13.0000000000	      5.0000000000	      4.0000000000
    471.0188871000	     13.0000000000	      7.0000000000	      3.0000000000
    472.0189272000	     14.0000000000	      6.0000000000	      4.0000000000
    473.0189673000	     12.0000000000	      6.0000000000	      3.0000000000
    474.0190074000	     11.0000000000	      5.0000000000	      3.0000000000
    475.0190475000	     14.0000000000	      6.0000000000	      4.0000000000
    476.0190876000	     13.0000000000	      7.0000000000	      3.0000000000
    477.0191277000	     12.0000000000	      6.0000000000	      3.0000000000
    478.0191678000	     13.0000000000	      7.0000000000	      3.0000000000
    479.0192079000	     15.0000000000	      7.0000000000	      4.0000000000
    480.0192480000	     15.0000000000	      7.0000000000	      4.0000000000
    481.0192881000	     15.0000000000	      7.0000000000	      4.0000000000
    482.0193282000	     16.0000000000	      6.0000000000	      5.0000000000
    483.0193683000	     13.0000000000	      5.0000000000	      4.0000000000
    484.0194084000	     15.0000000000	      7.0000000000	      4.0000000000
    485.0194485000	     16.0000000000	      8.0000000000	      4.0000000000
    486.0194886000	     16.0000000000	      8.0000000000	      4.0000000000
    487.0195287000	     14.0000000000	      8.0000000000	      3.0000000000
    488.0195688000	     16.0000000000	      8.0000000000	      4.0000000000
    489.0196089000	     15.0000000000	      7.0000000000	      4.0000000000
    490.0196490000	     14.0000000000	      8.0000000000	      3.0000000000
    491.0196891000	     14.0000000000	     10.0000000000	      2.0000000000
    492.0197292000	     13.0000000000	     11.0000000000	      1.0000000000
    493.0197693000	     13.0000000000	      7.0000000000	      3.0000000000
    494.0198094000	     16.0000000000	      8.0000000000	      4.0000000000
    495.0198495000	     14.0000000000	      8.0000000000	      3.0000000000
    496.0198896000	     13.0000000000	      7.0000000000	      3.0000000000
    497.0199297000	     13.0000000000	      7.0000000000	      3.0000000000
    498.0199698000	     15.0000000000	      7.0000000000	      4.0000000000
    499.0200099000	     14.0000000000	      6.0000000000	      4.0000000000
    500.0200500000	     14.0000000000	      8.0000000000	      3.0000000000
    501.0200901000	     15.0000000000	      9.0000000000	      3.0000000000
    502.0201302000	     16.0000000000	      8.0000000000	      4.0000000000
    503.0201703000	     15.0000000000	      9.0000000000	      3.0000000000
    504.0202104000	     15.0000000000	      7.0000000000	      4.0000000000
    505.0202505000	     14.0000000000	      8.0000000000	      3.0000000000
    506.0202906000	     13.0000000000	      7.0000000000	      3.0000000000
    507.0203307000	     14.0000000000	      8.0000000000	      3.0000000000
    508.0203708000	     15.0000000000	      7.0000000000	      4.0000000000
    509.0204109000	     15.0000000000	      5.0000000000	      5.0000000000
    510.0204510000	     16.0000000000	      6.0000000000	      5.0000000000
    511.0204911000	     16.0000000000	      6.0000000000	      5.0000000000
    512.0205312000	     17.0000000000	      7.0000000000	      5.0000000000
    513.0205713000	     15.0000000000	      7.0000000000	      4.0000000000
    514.0206114000	     17.0000000000	      7.0000000000	      5.0000000000
    515.0206515000	     17.0000000000	      5.0000000000	      6.0000000000
    516.0206916000	     17.0000000000	      7.0000000000	      5.0000000000
    517.0207317000	     15.0000000000	      7.0000000000	      4.0000000000
    518.0207718000	     16.0000000000	      8.0000000000	      4.0000000000
    519.0208119000	     16.0000000000	      6.0000000000	      5.0000000000
    520.0208520000	     17.0000000000	      7.0000000000	      5.0000000000
    521.0208921000	     14.0000000000	      6.0000000000	      4.0000000000
    522.0209322000	     17.0000000000	      9.0000000000	      4.0000000000
    523.0209723000	     15.0000000000	     11.0000000000	      2.0000000000
    524.0210124000	     14.0000000000	      8.0000000000	      3.0000000000
    525.0210525000	     15.0000000000	      9.0000000000	      3.0000000000
    526.0210926000	     16.0000000000	      8.0000000000	      4.0000000000
    527.0211327000	     16.0000000000	      8.0000000000	      4.0000000000
    528.0211728000	     18.0000000000	      8.0000000000	      5.0000000000
    529.0212129000	     18.0000000000	      8.0000000000	      5.0000000000
    530.0212530000	     16.0000000000	      8.0000000000	      4.0000000000
    531.0212931000	     17.0000000000	      7.0000000000	      5.0000000000
    532.0213332000	     14.0000000000	      6.0000000000	      4.0000000000
    533.0213733000	     16.0000000000	     10.0000000000	      3.0000000000
    534.0214134000	     16.0000000000	     10.0000000000	      3.0000000000
    535.0214535000	     15.0000000000	      9.0000000000	      3.0000000000
    536.0214936000	     18.0000000000	      8.0000000000	      5.0000000000
    537.0215337000	     18.0000000000	      8.0000000000	      5.0000000000
    538.0215738000	     15.0000000000	      9.0000000000	      3.0000000000
    539.0216139000	     12.0000000000	      8.0000000000	      2.0000000000
    540.0216540000	     15.0000000000	      9.0000000000	      3.0000000000
    541.0216941000	     14.0000000000	     10.0000000000	      2.0000000000
    542.0217342000	     14.0000000000	     10.0000000000	      2.0000000000
    543.0217743000	     13.0000000000	      9.0000000000	      2.0000000000
    544.0218144000	     16.0000000000	     10.0000000000	      3.0000000000
    545.0218545000	     16.0000000000	     10.0000000000	      3.0000000000
    546.0218946000	     16.0000000000	     10.0000000000	      3.0000000000
    547.0219347000	     17.0000000000	      9.0000000000	      4.0000000000
    548.0219748000	     17.0000000000	     11.0000000000	      3.0000000000
    549.0220149000	     18.0000000000	     10.0000000000	      4.0000000000
    550.0220550000	     16.0000000000	     10.0000000000	      3.0000000000
    551.0220951000	     16.0000000000	     10.0000000000	      3.0000000000
    552.0221352000	     16.0000000000	     10.0000000000	      3.0000000000
    553.0221753000	     16.0000000000	     10.0000000000	      3.0000000000
    554.0222154000	     16.0000000000	     10.0000000000	      3.0000000000
    555.0222555000	     16.0000000000	     10.0000000000	      3.0000000000
    556.0222956000	     16.0000000000	     10.0000000000	      3.0000000000
    557.0223357000	     16.0000000000	     10.0000000000	      3.0000000000
    558.0223758000	     16.0000000000	     10.0000000000	      3.0000000000
    559.0224159000	     16.0000000000	     10.0000000000	      3.0000000000
    560.0224560000	     15.0000000000	     11.0000000000	      2.0000000000
    561.0224961000	     15.0000000000	     11.0000000000	      2.0000000000
    562.0225362000	     16.0000000000	     10.0000000000	      3.0000000000
    563.0225763000	     15.0000000000	      9.0000000000	      3.0000000000
    564.0226164000	     15.0000000000	     11.0000000000	      2.0000000000
    565.0226565000	     15.0000000000	     13.0000000000	      1.0000000000
    566.0226966000	     16.0000000000	     10.0000000000	      3.0000000000
    567.0227367000	     16.0000000000	     10.0000000000	      3.0000000000
    568.0227768000	     14.0000000000	     10.0000000000	      2.0000000000
    569.0228169000	     15.0000000000	      9.0000000000	      3.0000000000
    570.0228570000	     15.0000000000	      9.0000000000	      3.0000000000
    571.0228971000	     16.0000000000	     10.0000000000	      3.0000000000
    572.0229372000	     15.0000000000	      9.0000000000	      3.0000000000
    573.0229773000	     16.0000000000	     10.0000000000	      3.0000000000
    574.0230174000	     15.0000000000	      9.0000000000	      3.0000000000
    575.0230575000	     13.0000000000	      7.0000000000	      3.0000000000
    576.0230976000	     16.0000000000	     10.0000000000	      3.0000000000
    577.0231377000	     17.0000000000	      9.0000000000	      4.0000000000
    578.0231778000	     16.0000000000	      8.0000000000	      4.0000000000
    579.0232179000	     17.0000000000	      9.0000000000	      4.0000000000
    580.0232580000	     16.0000000000	      8.0000000000	      4.0000000000
    581.0232981000	     16.0000000000	      8.0000000000	      4.0000000000
    582.0233382000	     16.0000000000	      8.0000000000	      4.0000000000
    583.0233783000	     15.0000000000	      9.0000000000	      3.0000000000
    584.0234184000	     15.0000000000	      7.0000000000	      4.0000000000
    585.0234585000	     15.0000000000	      9.0000000000	      3.0000000000
    586.0234986000	     13.0000000000	      9.0000000000	      2.0000000000
    587.0235387000	     15.0000000000	      9.0000000000	      3.0000000000
    588.0235788000	     15.0000000000	      7.0000000000	      4.0000000000
    589.0236189000	     15.0000000000	      9.0000000000	      3.0000000000
    590.0236590000	     16.0000000000	     10.0000000000	      3.0000000000
    591.0236991000	     16.0000000000	     10.0000000000	      3.0000000000
    592.0237392000	     15.0000000000	      9.0000000000	      3.0000000000
    593.0237793000	     16.0000000000	     10.0000000000	      3.0000000000
    594.0238194000	     14.0000000000	     10.0000000000	      2.0000000000
    595.0238595000	     12.0000000000	     10.0000000000	      1.0000000000
    596.0238996000	     12.0000000000	      8.0000000000	      2.0000000000
    597.0239397000	     12.0000000000	      8.0000000000	      2.0000000000
    598.0239798000	     10.0000000000	      6.0000000000	      2.0000000000
    599.0240199000	     12.0000000000	      8.0000000000	      2.0000000000
    600.0240600000	     12.0000000000	      6.0000000000	      3.0000000000
    601.0241001000	     11.0000000000	      7.0000000000	      2.0000000000
    602.0241402000	     11.0000000000	      7.0000000000	      2.0000000000
    603.0241803000	     13.0000000000	      7.0000000000	      3.0000000000
    604.0242204000	     13.0000000000	      7.0000000000	      3.0000000000
    605.0242605000	     13.0000000000	      5.0000000000	      4.0000000000
    606.0243006000	     13.0000000000	      3.0000000000	      5.0000000000
    607.0243407000	     12.0000000000	      4.0000000000	      4.0000000000
    608.0243808000	     12.0000000000	      6.0000000000	      3.0000000000
    609.0244209000	     13.0000000000	      3.0000000000	      5.0000000000
    610.0244610000	     14.0000000000	      4.0000000000	      5.0000000000
    611.0245011000	     12.0000000000	      6.0000000000	      3.0000000000
    612.0245412000	     12.0000000000	      4.0000000000	      4.0000000000
    613.0245813000	     14.0000000000	      6.0000000000	      4.0000000000
    614.0246214000	     13.0000000000	      7.0000000000	      3.0000000000
    615.0246615000	     16.0000000000	      6.0000000000	      5.0000000000
    616.0247016000	     18.0000000000	      6.0000000000	      6.0000000000
    617.0247417000	     16.0000000000	      6.0000000000	      5.0000000000
    618.0247818000	     14.0000000000	      6.0000000000	      4.0000000000
    619.0248219000	     14.0000000000	      4.0000000000	      5.0000000000
    620.0248620000	     13.0000000000	      7.0000000000	      3.0000000000
    621.0249021000	     13.0000000000	      5.0000000000	      4.0000000000
    622.0249422000	     14.0000000000	      6.0000000000	      4.0000000000
    623.0249823000	     15.0000000000	      7.0000000000	      4.0000000000
    624.0250224000	     13.0000000000	      5.0000000000	      4.0000000000
    625.0250625000	     14.0000000000	      4.0000000000	      5.0000000000
    626.0251026000	     13.0000000000	      5.0000000000	      4.0000000000
    627.0251427000	     13.0000000000	      5.0000000000	      4.0000000000
    628.0251828000	     14.0000000000	      6.0000000000	      4.0000000000
    629.0252229000	     14.0000000000	      6.0000000000	      4.0000000000
    630.0252630000	     13.0000000000	      5.0000000000	      4.0000000000
    631.0253031000	     17.0000000000	      7.0000000000	      5.0000000000
    632.0253432000	     11.0000000000	      5.0000000000	      3.0000000000
    633.0253833000	     18.0000000000	      6.0000000000	      6.0000000000
    634.0254234000	     16.0000000000	      6.0000000000	      5.0000000000
    635.0254635000	     16.0000000000	      6.0000000000	      5.0000000000
    636.0255036000	     14.0000000000	      6.0000000000	      4.0000000000
    637.0255437000	     12.0000000000	      8.0000000000	      2.0000000000
    638.0255838000	     14.0000000000	      6.0000000000	      4.0000000000
    639.0256239000	     13.0000000000	      7.0000000000	      3.0000000000
    640.0256640000	     14.0000000000	      6.0000000000	      4.0000000000
    641.0257041000	     14.0000000000	      6.0000000000	      4.0000000000
    642.0257442000	     12.0000000000	      6.0000000000	      3.0000000000
    643.0257843000	     14.0000000000	      8.0000000000	      3.0000000000
    644.0258244000	     12.0000000000	      8.0000000000	      2.0000000000
    645.0258645000	     14.0000000000	      8.0000000000	      3.0000000000
    646.0259046000	     15.0000000000	      7.0000000000	      4.0000000000
    647.0259447000	     16.0000000000	      8.0000000000	      4.0000000000
    648.0259848000	     13.0000000000	      9.0000000000	      2.0000000000
    649.0260249000	     11.0000000000	      7.0000000000	      2.0000000000
    650.0260650000	     14.0000000000	      8.0000000000	      3.0000000000
    651.0261051000	     10.0000000000	      6.0000000000	      2.0000000000
    652.0261452000	     12.0000000000	      6.0000000000	      3.0000000000
    653.0261853000	     12.0000000000	      8.0000000000	      2.0000000000
    654.0262254000	     14.0000000000	     10.0000000000	      2.0000000000
    655.0262655000	     11.0000000000	      7.0000000000	      2.0000000000
    656.0263056000	     13.0000000000	      9.0000000000	      2.0000000000
    657.0263457000	     13.0000000000	      9.0000000000	      2.0000000000
    658.0263858000	     13.0000000000	      9.0000000000	      2.0000000000
    659.0264259000	     13.0000000000	      9.0000000000	      2.0000000000
    660.0264660000	     12.0000000000	      8.0000000000	      2.0000000000
    661.0265061000	     11.0000000000	      9.0000000000	      1.0000000000
    662.0265462000	     11.0000000000	      9.0000000000	      1.0000000000
    663.0265863000	     13.0000000000	     11.0000000000	      1.0000000000
    664.0266264000	     13.0000000000	      9.0000000000	      2.0000000000
    665.0266665000	     13.0000000000	      9.0000000000	      2.0000000000
    666.0267066000	     14.0000000000	     10.0000000000	      2.0000000000
    667.0267467000	     13.0000000000	      9.0000000000	      2.0000000000
    668.0267868000	     12.0000000000	      8.0000000000	      2.0000000000
    669.0268269000	     13.0000000000	      9.0000000000	      2.0000000000
    670.0268670000	     13.0000000000	      7.0000000000	      3.0000000000
    671.0269071000	     13.0000000000	      7.0000000000	      3.0000000000
    672.0269472000	     14.0000000000	      8.0000000000	      3.0000000000
    673.0269873000	     12.0000000000	      8.0000000000	      2.0000000000
    674.0270274000	     13.0000000000	      5.0000000000	      4.0000000000
    675.0270675000	     13.0000000000	      7.0000000000	      3.0000000000
    676.0271076000	     13.0000000000	      5.0000000000	      4.0000000000
    677.0271477000	     14.0000000000	      8.0000000000	      3.0000000000
    678.0271878000	     13.0000000000	      5.0000000000	      4.0000000000
    679.0272279000	     11.0000000000	      7.0000000000	      2.0000000000
    680.0272680000	     14.0000000000	      6.0000000000	      4.0000000000
    681.0273081000	     14.0000000000	      6.0000000000	      4.0000000000
    682.0273482000	     14.0000000000	      6.0000000000	      4.0000000000
    683.0273883000	     13.0000000000	      7.0000000000	      3.0000000000
    684.0274284000	     13.0000000000	      5.0000000000	      4.0000000000
    685.0274685000	     14.0000000000	      6.0000000000	      4.0000000000
    686.0275086000	     14.0000000000	      6.0000000000	      4.0000000000
    687.0275487000	     13.0000000000	      5.0000000000	      4.0000000000
    688.0275888000	     16.0000000000	      6.0000000000	      5.0000000000
    689.0276289000	     15.0000000000	      5.0000000000	      5.0000000000
    690.0276690000	     14.0000000000	      6.0000000000	      4.0000000000
    691.0277091000	     14.0000000000	      6.0000000000	      4.0000000000
    692.0277492000	     16.0000000000	      6.0000000000	      5.0000000000
    693.0277893000	     16.0000000000	      6.0000000000	      5.0000000000
    694.0278294000	     12.0000000000	      6.0000000000	      3.0000000000
    695.0278695000	     14.0000000000	      6.0000000000	      4.0000000000
    696.0279096000	     13.0000000000	      5.0000000000	      4.0000000000
    697.0279497000	     16.0000000000	      6.0000000000	      5.0000000000
    698.0279898000	     13.0000000000	      5.0000000000	      4.0000000000
    699.0280299000	     13.0000000000	      7.0000000000	      3.0000000000
    700.0280700000	     13.0000000000	      5.0000000000	      4.0000000000
    701.0281101000	     13.0000000000	      5.0000000000	      4.0000000000
    702.0281502000	     12.0000000000	      6.0000000000	      3.0000000000
    703.0281903000	     13.0000000000	      5.0000000000	      4.0000000000
    704.0282304000	     14.0000000000	      6.0000000000	      4.0000000000
    705.0282705000	     13.0000000000	      5.0000000000	      4.0000000000
    706.0283106000	     13.0000000000	      5.0000000000	      4.0000000000
    707.0283507000	     11.0000000000	      5.0000000000	      3.0000000000
    708.0283908000	     14.0000000000	      6.0000000000	      4.0000000000
    709.0284309000	     14.0000000000	      6.0000000000	      4.0000000000
    710.0284710000	     14.0000000000	      6.0000000000	      4.0000000000
    711.0285111000	     11.0000000000	      5.0000000000	      3.0000000000
    712.0285512000	     13.0000000000	      5.0000000000	      4.0000000000
    713.0285913000	     11.0000000000	      7.0000000000	      2.0000000000
    714.0286314000	     10.0000000000	      6.0000000000	      2.0000000000
    715.0286715000	     14.0000000000	      6.0000000000	      4.0000000000
    716.0287116000	     10.0000000000	      8.0000000000	      1.0000000000
    717.0287517000	     11.0000000000	      7.0000000000	      2.0000000000
    718.0287918000	     14.0000000000	      6.0000000000	      4.0000000000
    719.0288319000	     12.0000000000	      6.0000000000	      3.0000000000
    720.0288720000	     14.0000000000	      6.0000000000	      4.0000000000
    721.0289121000	     13.0000000000	      7.0000000000	      3.0000000000
    722.0289522000	     10.0000000000	      8.0000000000	      1.0000000000
    723.0289923000	     11.0000000000	      7.0000000000	      2.0000000000
    724.0290324000	      8.0000000000	      4.0000000000	      2.0000000000
    725.0290725000	     13.0000000000	      7.0000000000	      3.0000000000
    726.0291126000	      9.0000000000	      7.0000000000	      1.0000000000
    727.0291527000	      9.0000000000	      5.0000000000	      2.0000000000
    728.0291928000	     13.0000000000	      7.0000000000	      3.0000000000
    729.0292329000	     11.0000000000	      7.0000000000	      2.0000000000
    730.0292730000	     11.0000000000	      7.0000000000	      2.0000000000
    731.0293131000	     11.0000000000	      7.0000000000	      2.0000000000
    732.0293532000	     11.0000000000	      7.0000000000	      2.0000000000
    733.0293933000	     10.0000000000	      6.0000000000	      2.0000000000
    734.0294334000	     10.0000000000	      6.0000000000	      2.0000000000
    735.0294735000	     11.0000000000	      7.0000000000	      2.0000000000
    736.0295136000	     10.0000000000	      8.0000000000	      1.0000000000
    737.0295537000	     12.0000000000	      8.0000000000	      2.0000000000
    738.0295938000	     10.0000000000	      6.0000000000	      2.0000000000
    739.0296339000	     11.0000000000	      7.0000000000	      2.0000000000
    740.0296740000	     11.0000000000	      7.0000000000	      2.0000000000
    741.0297141000	     12.0000000000	      8.0000000000	      2.0000000000
    742.0297542000	     12.0000000000	      8.0000000000	      2.0000000000
    743.0297943000	     11.0000000000	      5.0000000000	      3.0000000000
    744.0298344000	     11.0000000000	      5.0000000000	      3.0000000000
    745.0298745000	     12.0000000000	      6.0000000000	      3.0000000000
    746.0299146000	     12.0000000000	      6.0000000000	      3.0000000000
    747.0299547000	     14.0000000000	      6.0000000000	      4.0000000000
    748.0299948000	     14.0000000000	      6.0000000000	      4.0000000000
    749.0300349000	     11.0000000000	      5.0000000000	      3.0000000000
    750.0300750000	     11.0000000000	      5.0000000000	      3.0000000000
    751.0301151000	     12.0000000000	      6.0000000000	      3.0000000000
    752.0301552000	     12.0000000000	      6.0000000000	      3.0000000000
    753.0301953000	     12.0000000000	      6.0000000000	      3.0000000000
    754.0302354000	     12.0000000000	      6.0000000000	      3.0000000000
    755.0302755000	     11.0000000000	      5.0000000000	      3.0000000000
    756.0303156000	     12.0000000000	      6.0000000000	      3.0000000000
    757.0303557000	     12.0000000000	      6.0000000000	      3.0000000000
    758.0303958000	     11.0000000000	      7.0000000000	      2.0000000000
    759.0304359000	     12.0000000000	      6.0000000000	      3.0000000000
    760.0304760000	     12.0000000000	      6.0000000000	      3.0000000000
    761.0305161000	     12.0000000000	      6.0000000000	      3.0000000000
    762.0305562000	     12.0000000000	      6.0000000000	      3.0000000000
    763.0305963000	     12.0000000000	      6.0000000000	      3.0000000000
    764.0306364000	     12.0000000000	      6.0000000000	      3.0000000000
    765.0306765000	     12.0000000000	      6.0000000000	      3.0000000000
    766.0307166000	     12.0000000000	      6.0000000000	      3.0000000000
    767.0307567000	     10.0000000000	      8.0000000000	      1.0000000000
    768.0307968000	      9.0000000000	      7.0000000000	      1.0000000000
    769.0308369000	     10.0000000000	      6.0000000000	      2.0000000000
    770.0308770000	     12.0000000000	      6.0000000000	      3.0000000000
    771.0309171000	     12.0000000000	      6.0000000000	      3.0000000000
    772.0309572000	     12.0000000000	      6.0000000000	      3.0000000000
    773.0309973000	     11.0000000000	      5.0000000000	      3.0000000000
    774.0310374000	     11.0000000000	      5.0000000000	      3.0000000000
    775.0310775000	     12.0000000000	      6.0000000000	      3.0000000000
    776.0311176000	     12.0000000000	      6.0000000000	      3.0000000000
    777.0311577000	     12.0000000000	      6.0000000000	      3.0000000000
    778.0311978000	     12.0000000000	      6.0000000000	      3.0000000000
    779.0312379000	     11.0000000000	      7.0000000000	      2.0000000000
    780.0312780000	     12.0000000000	      6.0000000000	      3.0000000000
    781.0313181000	      9.0000000000	      7.0000000000	      1.0000000000
    782.0313582000	      9.0000000000	      7.0000000000	      1.0000000000
    783.0313983000	      9.0000000000	      5.0000000000	      2.0000000000
    784.0314384000	     10.0000000000	      6.0000000000	      2.0000000000
    785.0314785000	     10.0000000000	      6.0000000000	      2.0000000000
    786.0315186000	     10.0000000000	      6.0000000000	      2.0000000000
    787.0315587000	     10.0000000000	      6.0000000000	      2.0000000000
    788.0315988000	     11.0000000000	      5.0000000000	      3.0000000000
    789.0316389000	     12.0000000000	      6.0000000000	      3.0000000000
    790.0316790000	     12.0000000000	      6.0000000000	      3.0000000000
    791.0317191000	     12.0000000000	      6.0000000000	      3.0000000000
    792.0317592000	     12.0000000000	      6.0000000000	      3.0000000000
    793.0317993000	     13.0000000000	      5.0000000000	      4.0000000000
    794.0318394000	     12.0000000000	      6.0000000000	      3.0000000000
    795.0318795000	     13.0000000000	      5.0000000000	      4.0000000000
    796.0319196000	     12.0000000000	      6.0000000000	      3.0000000000
    797.0319597000	     12.0000000000	      4.0000000000	      4.0000000000
    798.0319998000	     13.0000000000	      5.0000000000	      4.0000000000
    799.0320399000	     12.0000000000	      4.0000000000	      4.0000000000
    800.0320800000	     13.0000000000	      5.0000000000	      4.0000000000
    801.0321201000	     14.0000000000	      6.0000000000	      4.0000000000
    802.0321602000	     14.0000000000	      6.0000000000	      4.0000000000
    803.0322003000	     13.0000000000	      7.0000000000	      3.0000000000
    804.0322404000	     14.0000000000	      6.0000000000	      4.0000000000
    805.0322805000	     13.0000000000	      7.0000000000	      3.0000000000
    806.0323206000	     14.0000000000	      6.0000000000	      4.0000000000
    807.0323607000	     13.0000000000	      5.0000000000	      4.0000000000
    808.0324008000	     14.0000000000	      6.0000000000	      4.0000000000
    809.0324409000	     14.0000000000	      6.0000000000	      4.0000000000
    810.0324810000	     14.0000000000	      6.0000000000	      4.0000000000
    811.0325211000	     14.0000000000	      6.0000000000	      4.0000000000
    812.0325612000	     14.0000000000	      6.0000000000	      4.0000000000
    813.0326013000	     12.0000000000	      4.0000000000	      4.0000000000
    814.0326414000	     13.0000000000	      5.0000000000	      4.0000000000
    815.0326815000	     14.0000000000	      6.0000000000	      4.0000000000
    816.0327216000	     14.0000000000	      6.0000000000	      4.0000000000
    817.0327617000	     14.0000000000	      6.0000000000	      4.0000000000
    818.0328018000	     14.0000000000	      6.0000000000	      4.0000000000
    819.0328419000	     13.0000000000	      7.0000000000	      3.0000000000
    820.0328820000	     12.0000000000	      6.0000000000	      3.0000000000
    821.0329221000	     16.0000000000	      6.0000000000	      5.0000000000
    822.0329622000	     16.0000000000	      6.0000000000	      5.0000000000
    823.0330023000	     13.0000000000	      7.0000000000	      3.0000000000
    824.0330424000	     12.0000000000	      6.0000000000	      3.0000000000
    825.0330825000	     15.0000000000	      5.0000000000	      5.0000000000
    826.0331226000	     13.0000000000	      5.0000000000	      4.0000000000
    827.0331627000	     12.0000000000	      6.0000000000	      3.0000000000
    828.0332028000	     14.0000000000	      6.0000000000	      4.0000000000
    829.0332429000	     11.0000000000	      7.0000000000	      2.0000000000
    830.0332830000	     10.0000000000	      6.0000000000	      2.0000000000
    831.0333231000	     11.0000000000	      7.0000000000	      2.0000000000
    832.0333632000	     12.0000000000	      6.0000000000	      3.0000000000
    833.0334033000	     10.0000000000	      4.0000000000	      3.0000000000
    834.0334434000	      9.0000000000	      5.0000000000	      2.0000000000
    835.0334835000	     10.0000000000	      6.0000000000	      2.0000000000
    836.0335236000	      9.0000000000	      5.0000000000	      2.0000000000
    837.0335637000	     10.0000000000	      6.0000000000	      2.0000000000
    838.0336038000	     10.0000000000	      6.0000000000	      2.0000000000
    839.0336439000	     10.0000000000	      6.0000000000	      2.0000000000
    840.0336840000	     10.0000000000	      6.0000000000	      2.0000000000
    841.0337241000	      8.0000000000	      6.0000000000	      1.0000000000
    842.0337642000	     10.0000000000	      6.0000000000	      2.0000000000
    843.0338043000	      9.0000000000	      7.0000000000	      1.0000000000
    844.0338444000	      9.0000000000	      5.0000000000	      2.0000000000
    845.0338845000	      9.0000000000	      5.0000000000	      2.0000000000
    846.0339246000	      8.0000000000	      6.0000000000	      1.0000000000
    847.0339647000	      8.0000000000	      6.0000000000	      1.0000000000
    848.0340048000	      6.0000000000	      6.0000000000	      0.0000000000
    849.0340449000	      7.0000000000	      7.0000000000	      0.0000000000
    850.0340850000	      8.0000000000	      8.0000000000	      0.0000000000
    851.0341251000	      8.0000000000	      8.0000000000	      0.0000000000
    852.0341652000	      8.0000000000	      8.0000000000	      0.0000000000
    853.0342053000	      6.0000000000	      6.0000000000	      0.0000000000
    854.0342454000	      7.0000000000	      7.0000000000	      0.0000000000
    855.0342855000	      8.0000000000	      8.0000000000	      0.0000000000
    856.0343256000	      6.0000000000	      6.0000000000	      0.0000000000
    857.0343657000	      6.0000000000	      6.0000000000	      0.0000000000
    858.0344058000	      7.0000000000	      7.0000000000	      0.0000000000
    859.0344459000	      7.0000000000	      7.0000000000	      0.0000000000
    860.0344860000	      7.0000000000	      5.0000000000	      1.0000000000
    861.0345261000	      7.0000000000	      7.0000000000	      0.0000000000
    862.0345662000	      8.0000000000	      8.0000000000	      0.0000000000
    863.0346063000	      7.0000000000	      7.0000000000	      0.0000000000
    864.0346464000	      9.0000000000	      7.0000000000	      1.0000000000
    865.0346865000	      8.0000000000	      8.0000000000	      0.0000000000
    866.0347266000	      7.0000000000	      7.0000000000	      0.0000000000
    867.0347667000	      8.0000000000	      8.0000000000	      0.0000000000
    868.0348068000	      8.0000000000	      8.0000000000	      0.0000000000
    869.0348469000	      9.0000000000	      7.0000000000	      1.0000000000
    870.0348870000	      8.0000000000	      6.0000000000	      1.0000000000
    871.0349271000	      9.0000000000	      7.0000000000	      1.0000000000
    872.0349672000	     10.0000000000	      6.0000000000	      2.0000000000
    873.0350073000	     10.0000000000	      6.0000000000	      2.0000000000
    874.0350474000	      9.0000000000	      7.0000000000	      1.0000000000
    875.0350875000	     10.0000000000	      6.0000000000	      2.0000000000
    876.0351276000	     10.0000000000	      6.0000000000	      2.0000000000
    877.0351677000	      9.0000000000	      5.0000000000	      2.0000000000
    878.0352078000	      8.0000000000	      6.0000000000	      1.0000000000
    879.0352479000	      9.0000000000	      5.0000000000	      2.0000000000
    880.0352880000	      7.0000000000	      5.0000000000	      1.0000000000
    881.0353281000	      8.0000000000	      6.0000000000	      1.0000000000
    882.0353682000	      6.0000000000	      6.0000000000	      0.0000000000
    883.0354083000	      6.0000000000	      6.0000000000	      0.0000000000
    884.0354484000	      4.0000000000	      4.0000000000	      0.0000000000
    885.0354885000	      6.0000000000	      6.0000000000	      0.0000000000
    886.0355286000	      6.0000000000	      6.0000000000	      0.0000000000
    887.0355687000	      6.0000000000	      6.0000000000	      0.0000000000
    888.0356088000	      6.0000000000	      6.0000000000	      0.0000000000
    889.0356489000	      5.0000000000	      5.0000000000	      0.0000000000
    890.0356890000	      5.0000000000	      5.0000000000	      0.0000000000
    891.0357291000	      6.0000000000	      6.0000000000	      0.0000000000
    892.0357692000	      6.0000000000	      6.0000000000	      0.0000000000
    893.0358093000	      6.0000000000	      6.0000000000	      0.0000000000
    894.0358494000	      6.0000000000	      6.0000000000	      0.0000000000
    895.0358895000	      6.0000000000	      6.0000000000	      0.0000000000
    896.0359296000	      6.0000000000	      6.0000000000	      0.0000000000
    897.0359697000	      6.0000000000	      6.0000000000	      0.0000000000
    898.0360098000	      5.0000000000	      5.0000000000	      0.0000000000
    899.0360499000	      5.0000000000	      5.0000000000	      0.0000000000
    900.0360900000	      6.0000000000	      6.0000000000	      0.0000000000
    901.0361301000	      5.0000000000	      5.0000000000	      0.0000000000
    902.0361702000	      6.0000000000	      6.0000000000	      0.0000000000
    903.0362103000	      5.0000000000	      5.0000000000	      0.0000000000
    904.0362504000	      5.0000000000	      5.0000000000	      0.0000000000
    905.0362905000	      6.0000000000	      6.0000000000	      0.0000000000
    906.0363306000	      6.0000000000	      6.0000000000	      0.0000000000
    907.0363707000	      6.0000000000	      6.0000000000	      0.0000000000
    908.0364108000	      6.0000000000	      6.0000000000	      0.0000000000
    909.0364509000	      6.0000000000	      6.0000000000	      0.0000000000
    910.0364910000	      6.0000000000	      6.0000000000	      0.0000000000
    911.0365311000	      5.0000000000	      5.0000000000	      0.0000000000
    912.0365712000	      6.0000000000	      6.0000000000	      0.0000000000
    913.0366113000	      5.0000000000	      5.0000000000	      0.0000000000
    914.0366514000	      5.0000000000	      5.0000000000	      0.0000000000
    915.0366915000	      6.0000000000	      6.0000000000	      0.0000000000
    916.0367316000	      6.0000000000	      6.0000000000	      0.0000000000
    917.0367717000	      5.0000000000	      5.0000000000	      0.0000000000
    918.0368118000	      6.0000000000	      6.0000000000	      0.0000000000
    919.0368519000	      6.0000000000	      6.0000000000	      0.0000000000
    920.0368920000	      6.0000000000	      6.0000000000	      0.0000000000
    921.0369321000	      5.0000000000	      5.0000000000	      0.0000000000
    922.0369722000	      6.0000000000	      6.0000000000	      0.0000000000
    923.0370123000	      6.0000000000	      6.0000000000	      0.0000000000
    924.0370524000	      6.0000000000	      6.0000000000	      0.0000000000
    925.0370925000	      6.0000000000	      6.0000000000	      0.0000000000
    926.0371326000	      6.0000000000	      6.0000000000	      0.0000000000
    927.0371727000	      5.0000000000	      5.0000000000	      0.0000000000
    928.0372128000	      6.0000000000	      6.0000000000	      0.0000000000
    929.0372529000	      5.0000000000	      5.0000000000	      0.0000000000
    930.0372930000	      5.0000000000	      5.0000000000	      0.0000000000
    931.0373331000	      6.0000000000	      6.0000000000	      0.0000000000
    932.0373732000	      5.0000000000	      5.0000000000	      0.0000000000
    933.0374133000	      4.0000000000	      4.0000000000	      0.0000000000
    934.0374534000	      3.0000000000	      3.0000000000	      0.0000000000
    935.0374935000	      4.0000000000	      4.0000000000	      0.0000000000
    936.0375336000	      4.0000000000	      4.0000000000	      0.0000000000
    937.0375737000	      3.0000000000	      3.0000000000	      0.0000000000
    938.0376138000	      4.0000000000	      4.0000000000	      0.0000000000
    939.0376539000	      4.0000000000	      4.0000000000	      0.0000000000
    940.0376940000	      4.0000000000	      4.0000000000	      0.0000000000
    941.0377341000	      4.0000000000	      4.0000000000	      0.0000000000
    942.0377742000	      4.0000000000	      4.0000000000	      0.0000000000
    943.0378143000	      4.0000000000	      4.0000000000	      0.0000000000
    944.0378544000	      3.0000000000	      3.0000000000	      0.0000000000
    945.0378945000	      3.0000000000	      3.0000000000	      0.0000000000
    946.0379346000	      3.0000000000	      3.0000000000	      0.0000000000
    947.0379747000	      4.0000000000	      4.0000000000	      0.0000000000
    948.0380148000	      3.0000000000	      3.0000000000	      0.0000000000
    949.0380549000	      4.0000000000	      4.0000000000	      0.0000000000
    950.0380950000	      4.0000000000	      4.0000000000	      0.0000000000
    951.0381351000	      3.0000000000	      3.0000000000	      0.0000000000
    952.0381752000	      4.0000000000	      4.0000000000	      0.0000000000
    953.0382153000	      3.0000000000	      3.0000000000	      0.0000000000
    954.0382554000	      3.0000000000	      3.0000000000	      0.0000000000
    955.0382955000	      4.0000000000	      4.0000000000	      0.0000000000
    956.0383356000	      4.0000000000	      4.0000000000	      0.0000000000
    957.0383757000	      2.0000000000	      2.0000000000	      0.0000000000
    958.0384158000	      4.0000000000	      4.0000000000	      0.0000000000
    959.0384559000	      2.0000000000	      2.0000000000	      0.0000000000
    960.0384960000	      4.0000000000	      4.0000000000	      0.0000000000
    961.0385361000	      3.0000000000	      3.0000000000	      0.0000000000
    962.0385762000	      2.0000000000	      2.0000000000	      0.0000000000
    963.0386163000	      3.0000000000	      3.0000000000	      0.0000000000
    964.0386564000	      2.0000000000	      2.0000000000	      0.0000000000
    965.0386965000	      2.0000000000	      2.0000000000	      0.0000000000
    966.0387366000	      4.0000000000	      4.0000000000	      0.0000000000
    967.0387767000	      4.0000000000	      4.0000000000	      0.0000000000
    968.0388168000	      4.0000000000	      4.0000000000	      0.0000000000
    969.0388569000	      3.0000000000	      3.0000000000	      0.0000000000
    970.0388970000	      4.0000000000	      4.0000000000	      0.0000000000
    971.0389371000	      3.0000000000	      3.0000000000	      0.0000000000
    972.0389772000	      3.0000000000	      3.0000000000	      0.0000000000
    973.0390173000	      3.0000000000	      3.0000000000	      0.0000000000
    974.0390574000	      3.0000000000	      3.0000000000	      0.0000000000
    975.0390975000	      4.0000000000	      4.0000000000	      0.0000000000
    976.0391376000	      2.0000000000	      2.0000000000	      0.0000000000
    977.0391777000	      4.0000000000	      4.0000000000	      0.0000000000
    978.0392178000	      3.0000000000	      3.0000000000	      0.0000000000
    979.0392579000	      4.0000000000	      4.0000000000	      0.0000000000
    980.0392980000	      3.0000000000	      3.0000000000	      0.0000000000
    981.0393381000	      3.0000000000	      3.0000000000	      0.0000000000
    982.0393782000	      4.0000000000	      4.0000000000	      0.0000000000
    983.0394183000	      2.0000000000	      2.0000000000	      0.0000000000
    984.0394584000	      4.0000000000	      2.0000000000	      1.0000000000
    985.0394985000	      2.0000000000	      0.0000000000	      1.0000000000
    986.0395386000	      4.0000000000	      2.0000000000	      1.0000000000
    987.0395787000	      4.0000000000	      2.0000000000	      1.0000000000
    988.0396188000	      3.0000000000	      1.0000000000	      1.0000000000
    989.0396589000	      4.0000000000	      2.0000000000	      1.0000000000
    990.0396990000	      4.0000000000	      2.0000000000	      1.0000000000
    991.0397391000	      4.0000000000	      2.0000000000	      1.0000000000
    992.0397792000	      4.0000000000	      2.0000000000	      1.0000000000
    993.0398193000	      3.0000000000	      3.0000000000	      0.0000000000
    994.0398594000	      4.0000000000	      2.0000000000	      1.0000000000
    995.0398995000	      4.0000000000	      2.0000000000	      1.0000000000
    996.0399396000	      3.0000000000	      1.0000000000	      1.0000000000
    997.0399797000	      3.0000000000	      3.0000000000	      0.0000000000
    998.0400198000	      2.0000000000	      2.0000000000	      0.0000000000
    999.0400599000	      3.0000000000	      1.0000000000	      1.0000000000
   1000.0401000000	      4.0000000000	      2.0000000000	      1.0000000000
